{
  "type": "FeatureCollection",
  "features": [
    {
      "type": "Feature",
      "properties": {
        "marker-color": "#1e6b1d",
        "marker-size": "small",
        "marker-symbol": "",
        "property name": "testing value"
      },
      "geometry": {
        "type": "Point",
        "coordinates": [
          -35.255126953125,
          -7.852498637813016
        ]
      }
    },
    {
      "type": "Feature",
      "properties": {
        "stroke": "#a61609",
        "stroke-width": 2,
        "stroke-opacity": 1,
        "fill": "#1ba714",
        "fill-opacity": 0.5,
        "testing property": "testing value"
      },
      "geometry": {
        "type": "Polygon",
        "coordinates": [
          [
            [
              -35.09033203125,
              -8.385431015567708
            ],
            [
              -36.024169921875,
              -7.416942257739039
            ],
            [
              -38.51806640625,
              -5.878332109674314
            ],
            [
              -38.3642578125,
              -6.293458760393985
            ],
            [
              -38.25439453125,
              -6.708253968671543
            ],
            [
              -38.97949218749999,
              -7.079088026071719
            ],
            [
              -38.84765625,
              -6.620957270326323
            ],
            [
              -38.73779296874999,
              -6.468151012664202
            ],
            [
              -39.66064453125,
              -6.68643125265198
            ],
            [
              -39.990234375,
              -7.514980942395872
            ],
            [
              -39.66064453125,
              -8.385431015567708
            ],
            [
              -39.88037109375,
              -8.950192825865779
            ],
            [
              -35.09033203125,
              -8.385431015567708
            ]
          ]
        ]
      }
    }
  ]
}
